<svg width="34" height="34" viewBox="0 0 34 34" fill="none" xmlns="http://www.w3.org/2000/svg" xmlns:xlink="http://www.w3.org/1999/xlink">
<rect x="1" y="1" width="32" height="32" rx="16" fill="black" fill-opacity="0.01" stroke="#39599F" stroke-width="2"/>
<rect x="14" y="11" width="6" height="12" fill="url(#pattern0)"/>
<defs>
<pattern id="pattern0" patternContentUnits="objectBoundingBox" width="1" height="1">
<use xlink:href="#image0_22_67" transform="scale(0.166667 0.0833333)"/>
</pattern>
<image id="image0_22_67" width="6" height="12" xlink:href="data:image/png;base64,iVBORw0KGgoAAAANSUhEUgAAAAYAAAAMCAYAAABBV8wuAAAAUklEQVQYlWO0jJzPwMDAYMDAwLCegYFBgQEKmKB0PbIgCLBAaQEksUQGBoYHIB0OaBIPYDr2IxsB48PswAAgCUYGBoYDSDIgPiNeHTSVYGBgAADjAwetkEKPggAAAABJRU5ErkJggg=="/>
</defs>
</svg>
